# vtk DataFile Version 4.2
vtk output
ASCII
DATASET UNSTRUCTURED_GRID
POINTS 12 double
508631.000 5717644.000 0.000
508293.000 5717536.000 0.000
508487.000 5717029.000 0.000
508979.000 5717495.000 0.000
508052.000 5717329.000 0.000
507884.000 5716941.000 0.000
509602.000 5716399.000 0.000
510012.000 5716100.000 0.000
509242.000 5716772.000 0.000
509320.000 5717228.000 0.000
509781.000 5716929.000 0.000
510032.000 5716448.000 0.000
CELLS  12 24
1 0
1 1
1 2
1 3
1 4
1 5
1 6
1 7
1 8
1 9
1 10
1 11
CELL_TYPES 12
1
1
1
1
1
1
1
1
1
1
1
1
