# vtk DataFile Version 4.2
vtk output
ASCII
DATASET POLYDATA
POINTS 9 double
509268.503 5717513.320 0.000
508926.805 5716727.840 0.000
508918.349 5716734.895 0.000
508795.731 5716837.185 0.000
507468.281 5716835.033 0.000
508337.242 5718025.235 0.000
509231.252 5717533.797 0.000
509245.511 5717525.958 0.000
509268.503 5717513.320 0.000
POLYGONS 1 10
9 0 1 2 3 4 5 6 7 8 
CELL_DATA 1
SCALARS Property float
LOOKUP_TABLE custom_table
0.0