[
	{
		"ColorSpace" : "RGB",
		"Creator" : "Colin Ware",
		"DefaultMap" : true,
		"Name" : "BGR Uniform",
		"NanColor" : 
		[
			1,
			0,
			0
		],
		"RGBPoints" : 
		[
0.00000000000000000,
0.87843137254901960,
0.00000000000000000,
0.62745098039215685,
0.04000000000000000,
0.94117647058823528,
0.00000000000000000,
0.50196078431372548,
0.08000000000000000,
1.00000000000000000,
0.00000000000000000,
0.37647058823529411,
0.12000000000000000,
1.00000000000000000,
0.12549019607843137,
0.37647058823529411,
0.16000000000000000,
1.00000000000000000,
0.25098039215686274,
0.37647058823529411,
0.20000000000000001,
1.00000000000000000,
0.37647058823529411,
0.18823529411764706,
0.23999999999999999,
1.00000000000000000,
0.50196078431372548,
0.31372549019607843,
0.28000000000000003,
1.00000000000000000,
0.62745098039215685,
0.31372549019607843,
0.32000000000000001,
1.00000000000000000,
0.75294117647058822,
0.31372549019607843,
0.35999999999999999,
1.00000000000000000,
0.81568627450980391,
0.31372549019607843,
0.40000000000000002,
1.00000000000000000,
0.87843137254901960,
0.25098039215686274,
0.44000000000000000,
1.00000000000000000,
1.00000000000000000,
0.31372549019607843,
0.47999999999999998,
1.00000000000000000,
1.00000000000000000,
0.43921568627450980,
0.52000000000000002,
0.94117647058823528,
1.00000000000000000,
0.50196078431372548,
0.56000000000000005,
0.81568627450980391,
1.00000000000000000,
0.43921568627450980,
0.59999999999999998,
0.69019607843137254,
1.00000000000000000,
0.43921568627450980,
0.64000000000000001,
0.56470588235294117,
1.00000000000000000,
0.43921568627450980,
0.68000000000000005,
0.50196078431372548,
1.00000000000000000,
0.43921568627450980,
0.71999999999999997,
0.43921568627450980,
1.00000000000000000,
0.50196078431372548,
0.76000000000000001,
0.37647058823529411,
0.87843137254901960,
0.81568627450980391,
0.80000000000000004,
0.31372549019607843,
0.81568627450980391,
0.87843137254901960,
0.83999999999999997,
0.25098039215686274,
0.75294117647058822,
0.94117647058823528,
0.88000000000000000,
0.18823529411764706,
0.75294117647058822,
1.00000000000000000,
0.92000000000000004,
0.12549019607843137,
0.69019607843137254,
1.00000000000000000,
0.95999999999999996,
0.12549019607843137,
0.62745098039215685,
1.00000000000000000,
1.00000000000000000,
0.12549019607843137,
0.50196078431372548,
1.00000000000000000
		]
	}
]   
